ISSS608-VAA - Exercise 3: Uncover patterns of resale price of HDB in SG
…
filtered_ds <- ds %>%
  filter(flat_type == "3 ROOM" | flat_type == "4 ROOM" | flat_type == "5 ROOM")

filtered_ds$year <- as.numeric(substring(filtered_ds$month, 0, 4))

filtered_ds$remaining_lease <- parse_remaining_lease(filtered_ds$remaining_lease)

filtered_ds$psm <- filtered_ds$resale_price / filtered_ds$floor_area_sqm

filtered_ds

# A tibble: 132,471 × 13
   month   town    flat_…¹ block stree…² store…³ floor…⁴ flat_…⁵ lease…⁶ remai…⁷
   <chr>   <chr>   <chr>   <chr> <chr>   <chr>     <dbl> <chr>     <dbl>   <dbl>
 1 2017-01 ANG MO… 3 ROOM  108   ANG MO… 01 TO …      67 New Ge…    1978      60
 2 2017-01 ANG MO… 3 ROOM  602   ANG MO… 01 TO …      67 New Ge…    1980      62
 3 2017-01 ANG MO… 3 ROOM  465   ANG MO… 04 TO …      68 New Ge…    1980      62
 4 2017-01 ANG MO… 3 ROOM  601   ANG MO… 01 TO …      67 New Ge…    1980      62
 5 2017-01 ANG MO… 3 ROOM  150   ANG MO… 01 TO …      68 New Ge…    1981      63
 6 2017-01 ANG MO… 3 ROOM  447   ANG MO… 04 TO …      68 New Ge…    1979      61
 7 2017-01 ANG MO… 3 ROOM  218   ANG MO… 04 TO …      67 New Ge…    1976      58
 8 2017-01 ANG MO… 3 ROOM  447   ANG MO… 04 TO …      68 New Ge…    1979      61
 9 2017-01 ANG MO… 3 ROOM  571   ANG MO… 01 TO …      67 New Ge…    1979      61
10 2017-01 ANG MO… 3 ROOM  534   ANG MO… 01 TO …      68 New Ge…    1980      62
# … with 132,461 more rows, 3 more variables: resale_price <dbl>, year <dbl>,
#   psm <dbl>, and abbreviated variable names ¹​flat_type, ²​street_name,
#   ³​storey_range, ⁴​floor_area_sqm, ⁵​flat_model, ⁶​lease_commence_date,
#   ⁷​remaining_lease
…
filtered_ds <- filtered_ds %>% 
  mutate(remaining_lease_bins = 
           cut(remaining_lease, 
               breaks = c(0,5,10,15,20,25,30,35,40,45,50,55,60,65,70,75,80,85,90,95,100,105,110,115,120,125))
)
filtered_ds

# A tibble: 132,471 × 14
   month   town    flat_…¹ block stree…² store…³ floor…⁴ flat_…⁵ lease…⁶ remai…⁷
   <chr>   <chr>   <chr>   <chr> <chr>   <chr>     <dbl> <chr>     <dbl>   <dbl>
 1 2017-01 ANG MO… 3 ROOM  108   ANG MO… 01 TO …      67 New Ge…    1978      60
 2 2017-01 ANG MO… 3 ROOM  602   ANG MO… 01 TO …      67 New Ge…    1980      62
 3 2017-01 ANG MO… 3 ROOM  465   ANG MO… 04 TO …      68 New Ge…    1980      62
 4 2017-01 ANG MO… 3 ROOM  601   ANG MO… 01 TO …      67 New Ge…    1980      62
 5 2017-01 ANG MO… 3 ROOM  150   ANG MO… 01 TO …      68 New Ge…    1981      63
 6 2017-01 ANG MO… 3 ROOM  447   ANG MO… 04 TO …      68 New Ge…    1979      61
 7 2017-01 ANG MO… 3 ROOM  218   ANG MO… 04 TO …      67 New Ge…    1976      58
 8 2017-01 ANG MO… 3 ROOM  447   ANG MO… 04 TO …      68 New Ge…    1979      61
 9 2017-01 ANG MO… 3 ROOM  571   ANG MO… 01 TO …      67 New Ge…    1979      61
10 2017-01 ANG MO… 3 ROOM  534   ANG MO… 01 TO …      68 New Ge…    1980      62
# … with 132,461 more rows, 4 more variables: resale_price <dbl>, year <dbl>,
#   psm <dbl>, remaining_lease_bins <fct>, and abbreviated variable names
#   ¹​flat_type, ²​street_name, ³​storey_range, ⁴​floor_area_sqm, ⁵​flat_model,
#   ⁶​lease_commence_date, ⁷​remaining_lease
…
filtered_ds <- filtered_ds %>% 
  mutate(floor_area_sqm_bins = 
           cut(floor_area_sqm, 
               breaks = c(0,50, 60, 70, 80, 90, 100, 110, 120, 130, 140, 150, 160))
)
filtered_ds

# A tibble: 132,471 × 15
   month   town    flat_…¹ block stree…² store…³ floor…⁴ flat_…⁵ lease…⁶ remai…⁷
   <chr>   <chr>   <chr>   <chr> <chr>   <chr>     <dbl> <chr>     <dbl>   <dbl>
 1 2017-01 ANG MO… 3 ROOM  108   ANG MO… 01 TO …      67 New Ge…    1978      60
 2 2017-01 ANG MO… 3 ROOM  602   ANG MO… 01 TO …      67 New Ge…    1980      62
 3 2017-01 ANG MO… 3 ROOM  465   ANG MO… 04 TO …      68 New Ge…    1980      62
 4 2017-01 ANG MO… 3 ROOM  601   ANG MO… 01 TO …      67 New Ge…    1980      62
 5 2017-01 ANG MO… 3 ROOM  150   ANG MO… 01 TO …      68 New Ge…    1981      63
 6 2017-01 ANG MO… 3 ROOM  447   ANG MO… 04 TO …      68 New Ge…    1979      61
 7 2017-01 ANG MO… 3 ROOM  218   ANG MO… 04 TO …      67 New Ge…    1976      58
 8 2017-01 ANG MO… 3 ROOM  447   ANG MO… 04 TO …      68 New Ge…    1979      61
 9 2017-01 ANG MO… 3 ROOM  571   ANG MO… 01 TO …      67 New Ge…    1979      61
10 2017-01 ANG MO… 3 ROOM  534   ANG MO… 01 TO …      68 New Ge…    1980      62
# … with 132,461 more rows, 5 more variables: resale_price <dbl>, year <dbl>,
#   psm <dbl>, remaining_lease_bins <fct>, floor_area_sqm_bins <fct>, and
#   abbreviated variable names ¹​flat_type, ²​street_name, ³​storey_range,
#   ⁴​floor_area_sqm, ⁵​flat_model, ⁶​lease_commence_date, ⁷​remaining_lease
…
